^D:\PROGRAMMING\COLLEGE\MAKKI\SOURCE\RELEASE\ANIMATION.OBJ|D:\PROGRAMMING\COLLEGE\MAKKI\SOURCE\RELEASE\ASTEROID.OBJ|D:\PROGRAMMING\COLLEGE\MAKKI\SOURCE\RELEASE\BULLET.OBJ|D:\PROGRAMMING\COLLEGE\MAKKI\SOURCE\RELEASE\CHAR.OBJ|D:\PROGRAMMING\COLLEGE\MAKKI\SOURCE\RELEASE\ENEMY.OBJ|D:\PROGRAMMING\COLLEGE\MAKKI\SOURCE\RELEASE\ENTITY.OBJ|D:\PROGRAMMING\COLLEGE\MAKKI\SOURCE\RELEASE\GAME.OBJ|D:\PROGRAMMING\COLLEGE\MAKKI\SOURCE\RELEASE\GLOBALS.OBJ|D:\PROGRAMMING\COLLEGE\MAKKI\SOURCE\RELEASE\ITEM.OBJ|D:\PROGRAMMING\COLLEGE\MAKKI\SOURCE\RELEASE\LOGIN.OBJ|D:\PROGRAMMING\COLLEGE\MAKKI\SOURCE\RELEASE\MAKKI.OBJ|D:\PROGRAMMING\COLLEGE\MAKKI\SOURCE\RELEASE\MENU.OBJ|D:\PROGRAMMING\COLLEGE\MAKKI\SOURCE\RELEASE\MISSIONBRIEFING.OBJ|D:\PROGRAMMING\COLLEGE\MAKKI\SOURCE\RELEASE\PLAYER.OBJ|D:\PROGRAMMING\COLLEGE\MAKKI\SOURCE\RELEASE\SCENEMANAGER.OBJ|D:\PROGRAMMING\COLLEGE\MAKKI\SOURCE\RELEASE\SDLHELPERS.OBJ|D:\PROGRAMMING\COLLEGE\MAKKI\SOURCE\RELEASE\SPRITE.OBJ|D:\PROGRAMMING\COLLEGE\MAKKI\SOURCE\RELEASE\STRINGINPUT.OBJ|D:\PROGRAMMING\COLLEGE\MAKKI\SOURCE\RELEASE\WEAPON.OBJ
D:\PROGRAMMING\COLLEGE\MAKKI\SOURCE\RELEASE\MAKKI.EXE
D:\PROGRAMMING\COLLEGE\MAKKI\SOURCE\RELEASE\MAKKI.EXE.INTERMEDIATE.MANIFEST
D:\PROGRAMMING\COLLEGE\MAKKI\SOURCE\RELEASE\MAKKI.PDB
